\relax 
\catcode`:\active
\catcode`;\active
\catcode`!\active
\catcode`?\active
\ifx\hyper@anchor\@undefined
\global \let \oldcontentsline\contentsline
\gdef \contentsline#1#2#3#4{\oldcontentsline{#1}{#2}{#3}}
\global \let \oldnewlabel\newlabel
\gdef \newlabel#1#2{\newlabelxx{#1}#2}
\gdef \newlabelxx#1#2#3#4#5#6{\oldnewlabel{#1}{{#2}{#3}}}
\AtEndDocument{\let \contentsline\oldcontentsline
\let \newlabel\oldnewlabel}
\else
\global \let \hyper@last\relax 
\fi

\select@language{french}
\@writefile{toc}{\select@language{french}}
\@writefile{lof}{\select@language{french}}
\@writefile{lot}{\select@language{french}}
\@writefile{toc}{\contentsline {chapter}{\numberline {1}Introduction : pr\IeC {\'e}sentation du projet}{2}{chapter.1}}
\@writefile{lof}{\addvspace {10\p@ }}
\@writefile{lot}{\addvspace {10\p@ }}
\@writefile{toc}{\contentsline {paragraph}{Le Principe est le suivant:}{2}{section*.2}}
\newlabel{schema_domotique}{{1}{2}{Le Principe est le suivant:\relax }{section*.2}{}}
\@writefile{lof}{\contentsline {figure}{\numberline {1.1}{\ignorespaces Sch\IeC {\'e}ma descriptif du syst\IeC {\`e}me Domotique}}{2}{figure.1.1}}
\@writefile{toc}{\contentsline {paragraph}{}{2}{section*.3}}
\@writefile{toc}{\contentsline {paragraph}{}{3}{section*.4}}
\@writefile{toc}{\contentsline {chapter}{\numberline {2}Architecture de l'application}{4}{chapter.2}}
\@writefile{lof}{\addvspace {10\p@ }}
\@writefile{lot}{\addvspace {10\p@ }}
\newlabel{architecture}{{2}{4}{Architecture de l'application\relax }{chapter.2}{}}
\@writefile{lof}{\contentsline {figure}{\numberline {2.1}{\ignorespaces Architecture de l'application}}{4}{figure.2.1}}
\@writefile{toc}{\contentsline {paragraph}{}{5}{section*.5}}
\newlabel{sequence}{{2}{5}{\relax }{section*.5}{}}
\@writefile{lof}{\contentsline {figure}{\numberline {2.2}{\ignorespaces Exemple de fonctionnement du moteur}}{5}{figure.2.2}}
\@writefile{toc}{\contentsline {chapter}{\numberline {3}Application Android}{6}{chapter.3}}
\@writefile{lof}{\addvspace {10\p@ }}
\@writefile{lot}{\addvspace {10\p@ }}
\newlabel{ClassAndro}{{3}{6}{Application Android\relax }{chapter.3}{}}
\@writefile{lof}{\contentsline {figure}{\numberline {3.1}{\ignorespaces Structure de l'application android}}{6}{figure.3.1}}
\@writefile{toc}{\contentsline {section}{\numberline {3.1}Construction de l'interface}{6}{section.3.1}}
\@writefile{toc}{\contentsline {paragraph}{}{6}{section*.6}}
\newlabel{ClassAndro}{{3.1}{7}{\relax }{section*.6}{}}
\@writefile{lof}{\contentsline {figure}{\numberline {3.2}{\ignorespaces Interface de l'application Android}}{7}{figure.3.2}}
\@writefile{toc}{\contentsline {section}{\numberline {3.2}Gestion de la rotation}{7}{section.3.2}}
\@writefile{toc}{\contentsline {paragraph}{}{7}{section*.7}}
\@writefile{toc}{\contentsline {section}{\numberline {3.3}Lien avec le moteur}{8}{section.3.3}}
\@writefile{toc}{\contentsline {chapter}{\numberline {4}Interface web mobile}{9}{chapter.4}}
\@writefile{lof}{\addvspace {10\p@ }}
\@writefile{lot}{\addvspace {10\p@ }}
\@writefile{toc}{\contentsline {section}{\numberline {4.1}Pr\IeC {\'e}sentation de l'interface web mobile}{9}{section.4.1}}
\newlabel{archiweb}{{4.1}{9}{Présentation de l'interface web mobile\relax }{section.4.1}{}}
\@writefile{lof}{\contentsline {figure}{\numberline {4.1}{\ignorespaces Architecture de l'interface web}}{9}{figure.4.1}}
\@writefile{toc}{\contentsline {section}{\numberline {4.2}G\IeC {\'e}n\IeC {\'e}ration des requ\IeC {\^e}tes HTTP avec CGI}{9}{section.4.2}}
\newlabel{cgi}{{4.2}{10}{Génération des requêtes HTTP avec CGI\relax }{section.4.2}{}}
\@writefile{lof}{\contentsline {figure}{\numberline {4.2}{\ignorespaces Fonctionnement de module CGI}}{10}{figure.4.2}}
\@writefile{toc}{\contentsline {section}{\numberline {4.3}Structure des pages CGI}{10}{section.4.3}}
\newlabel{serverweb}{{4.3}{10}{Structure des pages CGI\relax }{section.4.3}{}}
\@writefile{lof}{\contentsline {figure}{\numberline {4.3}{\ignorespaces Serveur web mobile}}{10}{figure.4.3}}
\@writefile{toc}{\contentsline {paragraph}{}{10}{section*.8}}
\@writefile{toc}{\contentsline {paragraph}{}{10}{section*.9}}
\newlabel{vie}{{4.3}{11}{\relax }{section*.8}{}}
\@writefile{lof}{\contentsline {figure}{\numberline {4.4}{\ignorespaces Vie du moteur}}{11}{figure.4.4}}
\newlabel{interf}{{4.3}{11}{\relax }{section*.9}{}}
\@writefile{lof}{\contentsline {figure}{\numberline {4.5}{\ignorespaces Interface}}{11}{figure.4.5}}
\@writefile{toc}{\contentsline {chapter}{\numberline {5}Conclusion}{12}{chapter.5}}
\@writefile{lof}{\addvspace {10\p@ }}
\@writefile{lot}{\addvspace {10\p@ }}
\@writefile{toc}{\contentsline {paragraph}{}{12}{section*.10}}
\@writefile{toc}{\contentsline {paragraph}{}{12}{section*.11}}
\@writefile{toc}{\contentsline {paragraph}{}{12}{section*.12}}
\@writefile{toc}{\contentsline {paragraph}{}{12}{section*.13}}
